…
Checking if dependent variable follows a normal distribution

hist(data$Price)

<img src="{{< blogdown/postref >}}index_files/figure-html/unnamed-chunk-4-1.png" width="672" />

Save dataset to tibble named “df”

df <- data %>%
  as_tibble() %>%
  print()

## # A tibble: 440 × 9
##    Carat Colour Clarity Cut   Certification Polish Symmetry Price Wholesaler
##    <dbl> <chr>  <chr>   <chr> <chr>         <chr>  <chr>    <dbl>      <dbl>
##  1  0.92 I      SI2     G     AGS           V      V         3000          1
##  2  0.92 I      SI2     V     AGS           G      G         3000          1
##  3  0.82 F      SI2     I     GIA           X      X         3004          1
##  4  0.81 G      SI1     I     GIA           X      V         3004          1
##  5  0.9  J      VS2     V     GIA           V      V         3006          1
##  6  0.87 F      SI2     I     AGS           G      V         3007          1
##  7  0.8  D      SI2     I     GIA           V      V         3008          1
##  8  0.84 F      SI1     G     GIA           V      V         3010          1
##  9  0.8  D      SI2     V     GIA           V      V         3012          1
## 10  0.8  D      SI2     V     GIA           V      X         3012          1
## # … with 430 more rows

Cleaning up dataframe

df %<>%
  select(Carat:Price) %>%
  print()

## # A tibble: 440 × 8
##    Carat Colour Clarity Cut   Certification Polish Symmetry Price
##    <dbl> <chr>  <chr>   <chr> <chr>         <chr>  <chr>    <dbl>
##  1  0.92 I      SI2     G     AGS           V      V         3000
##  2  0.92 I      SI2     V     AGS           G      G         3000
##  3  0.82 F      SI2     I     GIA           X      X         3004
##  4  0.81 G      SI1     I     GIA           X      V         3004
##  5  0.9  J      VS2     V     GIA           V      V         3006
##  6  0.87 F      SI2     I     AGS           G      V         3007
##  7  0.8  D      SI2     I     GIA           V      V         3008
##  8  0.84 F      SI1     G     GIA           V      V         3010
##  9  0.8  D      SI2     V     GIA           V      V         3012
## 10  0.8  D      SI2     V     GIA           V      X         3012
## # … with 430 more rows
…
<img src="{{< blogdown/postref >}}index_files/figure-html/unnamed-chunk-7-1.png" width="672" />

# Frequencies for Carat
df %>% count(Price)

## # A tibble: 197 × 2
##    Price     n
##    <dbl> <int>
##  1   160     6
##  2   180    11
##  3   190     5
##  4   320     2
##  5   330     6
##  6   340     6
##  7   360     5
##  8   372     1
##  9   404     1
## 10   439     1
## # … with 187 more rows
…
<img src="{{< blogdown/postref >}}index_files/figure-html/unnamed-chunk-8-1.png" width="672" />

# Create dichotomous 0.9 carat/not variable for exploration
df %<>%
  mutate(
    carat = ifelse(
      Carat %in%
      c("0.9"),
      "yes", "no")
  ) %>%
  print()

## # A tibble: 440 × 9
##    Carat Colour Clarity Cut   Certification Polish Symmetry Price carat
##    <dbl> <chr>  <chr>   <chr> <chr>         <chr>  <chr>    <dbl> <chr>
##  1  0.92 I      SI2     G     AGS           V      V         3000 no   
##  2  0.92 I      SI2     V     AGS           G      G         3000 no   
##  3  0.82 F      SI2     I     GIA           X      X         3004 no   
##  4  0.81 G      SI1     I     GIA           X      V         3004 no   
##  5  0.9  J      VS2     V     GIA           V      V         3006 yes  
##  6  0.87 F      SI2     I     AGS           G      V         3007 no   
##  7  0.8  D      SI2     I     GIA           V      V         3008 no   
##  8  0.84 F      SI1     G     GIA           V      V         3010 no   
##  9  0.8  D      SI2     V     GIA           V      V         3012 no   
## 10  0.8  D      SI2     V     GIA           V      X         3012 no   
## # … with 430 more rows
…
<img src="{{< blogdown/postref >}}index_files/figure-html/unnamed-chunk-9-1.png" width="672" />

# Create dichotomous J/not variable for exploration
df %<>%
  mutate(
    color = ifelse(
      Colour %in%
      c("J"),
      "yes", "no")
  ) %>%
  print()

## # A tibble: 440 × 10
##    Carat Colour Clarity Cut   Certification Polish Symmetry Price carat color
##    <dbl> <chr>  <chr>   <chr> <chr>         <chr>  <chr>    <dbl> <chr> <chr>
##  1  0.92 I      SI2     G     AGS           V      V         3000 no    no   
##  2  0.92 I      SI2     V     AGS           G      G         3000 no    no   
##  3  0.82 F      SI2     I     GIA           X      X         3004 no    no   
##  4  0.81 G      SI1     I     GIA           X      V         3004 no    no   
##  5  0.9  J      VS2     V     GIA           V      V         3006 yes   yes  
##  6  0.87 F      SI2     I     AGS           G      V         3007 no    no   
##  7  0.8  D      SI2     I     GIA           V      V         3008 no    no   
##  8  0.84 F      SI1     G     GIA           V      V         3010 no    no   
##  9  0.8  D      SI2     V     GIA           V      V         3012 no    no   
## 10  0.8  D      SI2     V     GIA           V      X         3012 no    no   
## # … with 430 more rows
…
<img src="{{< blogdown/postref >}}index_files/figure-html/unnamed-chunk-10-1.png" width="672" />

# Create dichotomous SI2/not variable for exploration
df %<>%
  mutate(
    clarity = ifelse(
      Clarity %in%
      c("SI2"),
      "yes", "no")
  ) %>%
  print()

## # A tibble: 440 × 11
##    Carat Colour Clarity Cut   Certification Polish Symmetry Price carat color
##    <dbl> <chr>  <chr>   <chr> <chr>         <chr>  <chr>    <dbl> <chr> <chr>
##  1  0.92 I      SI2     G     AGS           V      V         3000 no    no   
##  2  0.92 I      SI2     V     AGS           G      G         3000 no    no   
##  3  0.82 F      SI2     I     GIA           X      X         3004 no    no   
##  4  0.81 G      SI1     I     GIA           X      V         3004 no    no   
##  5  0.9  J      VS2     V     GIA           V      V         3006 yes   yes  
##  6  0.87 F      SI2     I     AGS           G      V         3007 no    no   
##  7  0.8  D      SI2     I     GIA           V      V         3008 no    no   
##  8  0.84 F      SI1     G     GIA           V      V         3010 no    no   
##  9  0.8  D      SI2     V     GIA           V      V         3012 no    no   
## 10  0.8  D      SI2     V     GIA           V      X         3012 no    no   
## # … with 430 more rows, and 1 more variable: clarity <chr>
…
<img src="{{< blogdown/postref >}}index_files/figure-html/unnamed-chunk-11-1.png" width="672" />

# Create dichotomous V/not variable for exploration
df %<>%
  mutate(
    cut = ifelse(
      Cut %in%
      c("V"),
      "yes", "no")
  ) %>%
  print()

## # A tibble: 440 × 12
##    Carat Colour Clarity Cut   Certification Polish Symmetry Price carat color
##    <dbl> <chr>  <chr>   <chr> <chr>         <chr>  <chr>    <dbl> <chr> <chr>
##  1  0.92 I      SI2     G     AGS           V      V         3000 no    no   
##  2  0.92 I      SI2     V     AGS           G      G         3000 no    no   
##  3  0.82 F      SI2     I     GIA           X      X         3004 no    no   
##  4  0.81 G      SI1     I     GIA           X      V         3004 no    no   
##  5  0.9  J      VS2     V     GIA           V      V         3006 yes   yes  
##  6  0.87 F      SI2     I     AGS           G      V         3007 no    no   
##  7  0.8  D      SI2     I     GIA           V      V         3008 no    no   
##  8  0.84 F      SI1     G     GIA           V      V         3010 no    no   
##  9  0.8  D      SI2     V     GIA           V      V         3012 no    no   
## 10  0.8  D      SI2     V     GIA           V      X         3012 no    no   
## # … with 430 more rows, and 2 more variables: clarity <chr>, cut <chr>
…
<img src="{{< blogdown/postref >}}index_files/figure-html/unnamed-chunk-12-1.png" width="672" />

# Create dichotomous GIA/not variable for exploration
df %<>%
  mutate(
    certification = ifelse(
      Certification %in%
      c("GIA"),
      "yes", "no")
  ) %>%
  print()

## # A tibble: 440 × 13
##    Carat Colour Clarity Cut   Certification Polish Symmetry Price carat color
##    <dbl> <chr>  <chr>   <chr> <chr>         <chr>  <chr>    <dbl> <chr> <chr>
##  1  0.92 I      SI2     G     AGS           V      V         3000 no    no   
##  2  0.92 I      SI2     V     AGS           G      G         3000 no    no   
##  3  0.82 F      SI2     I     GIA           X      X         3004 no    no   
##  4  0.81 G      SI1     I     GIA           X      V         3004 no    no   
##  5  0.9  J      VS2     V     GIA           V      V         3006 yes   yes  
##  6  0.87 F      SI2     I     AGS           G      V         3007 no    no   
##  7  0.8  D      SI2     I     GIA           V      V         3008 no    no   
##  8  0.84 F      SI1     G     GIA           V      V         3010 no    no   
##  9  0.8  D      SI2     V     GIA           V      V         3012 no    no   
## 10  0.8  D      SI2     V     GIA           V      X         3012 no    no   
## # … with 430 more rows, and 3 more variables: clarity <chr>, cut <chr>,
## #   certification <chr>
…
<img src="{{< blogdown/postref >}}index_files/figure-html/unnamed-chunk-13-1.png" width="672" />

# Create dichotomous G/not variable for exploration
df %<>%
  mutate(
    polish = ifelse(
      Polish %in%
      c("G"),
      "yes", "no")
  ) %>%
  print()

## # A tibble: 440 × 14
##    Carat Colour Clarity Cut   Certification Polish Symmetry Price carat color
##    <dbl> <chr>  <chr>   <chr> <chr>         <chr>  <chr>    <dbl> <chr> <chr>
##  1  0.92 I      SI2     G     AGS           V      V         3000 no    no   
##  2  0.92 I      SI2     V     AGS           G      G         3000 no    no   
##  3  0.82 F      SI2     I     GIA           X      X         3004 no    no   
##  4  0.81 G      SI1     I     GIA           X      V         3004 no    no   
##  5  0.9  J      VS2     V     GIA           V      V         3006 yes   yes  
##  6  0.87 F      SI2     I     AGS           G      V         3007 no    no   
##  7  0.8  D      SI2     I     GIA           V      V         3008 no    no   
##  8  0.84 F      SI1     G     GIA           V      V         3010 no    no   
##  9  0.8  D      SI2     V     GIA           V      V         3012 no    no   
## 10  0.8  D      SI2     V     GIA           V      X         3012 no    no   
## # … with 430 more rows, and 4 more variables: clarity <chr>, cut <chr>,
## #   certification <chr>, polish <chr>
…
<img src="{{< blogdown/postref >}}index_files/figure-html/unnamed-chunk-14-1.png" width="672" />

# Create dichotomous V/not variable for exploration
df %<>%
  mutate(
    symmetry = ifelse(
      Symmetry %in%
      c("V"),
      "yes", "no")
  ) %>%
  print()

## # A tibble: 440 × 15
##    Carat Colour Clarity Cut   Certification Polish Symmetry Price carat color
##    <dbl> <chr>  <chr>   <chr> <chr>         <chr>  <chr>    <dbl> <chr> <chr>
##  1  0.92 I      SI2     G     AGS           V      V         3000 no    no   
##  2  0.92 I      SI2     V     AGS           G      G         3000 no    no   
##  3  0.82 F      SI2     I     GIA           X      X         3004 no    no   
##  4  0.81 G      SI1     I     GIA           X      V         3004 no    no   
##  5  0.9  J      VS2     V     GIA           V      V         3006 yes   yes  
##  6  0.87 F      SI2     I     AGS           G      V         3007 no    no   
##  7  0.8  D      SI2     I     GIA           V      V         3008 no    no   
##  8  0.84 F      SI1     G     GIA           V      V         3010 no    no   
##  9  0.8  D      SI2     V     GIA           V      V         3012 no    no   
## 10  0.8  D      SI2     V     GIA           V      X         3012 no    no   
## # … with 430 more rows, and 5 more variables: clarity <chr>, cut <chr>,
## #   certification <chr>, polish <chr>, symmetry <chr>
…
ggplot(data, aes(Price, Carat)) +
    geom_point() +
    geom_line(aes(y = predict(nlsfit)))

<img src="{{< blogdown/postref >}}index_files/figure-html/unnamed-chunk-17-2.png" width="672" />
# Bootstrapping models

library(rsample)
set.seed(1)
boots <- bootstraps(data, times = 2000, apparent = TRUE)
boots

## # Bootstrap sampling with apparent sample 
## # A tibble: 2,001 × 2
##    splits            id           
##    <list>            <chr>        
##  1 <split [440/170]> Bootstrap0001
##  2 <split [440/168]> Bootstrap0002
##  3 <split [440/163]> Bootstrap0003
##  4 <split [440/160]> Bootstrap0004
##  5 <split [440/170]> Bootstrap0005
##  6 <split [440/157]> Bootstrap0006
##  7 <split [440/163]> Bootstrap0007
##  8 <split [440/158]> Bootstrap0008
##  9 <split [440/163]> Bootstrap0009
## 10 <split [440/169]> Bootstrap0010
## # … with 1,991 more rows
…
